^D:\PROGRAMACION\C++\UNREALEXAM\PREGUNTA8\PREGUNTA8\PREGUNTA8\ENEMYATTACK.CPP
/c /ZI /JMC /nologo /W3 /WX- /diagnostics:column /sdl /Od /Oy- /D WIN32 /D _DEBUG /D _CONSOLE /D _UNICODE /D UNICODE /Gm- /EHsc /RTC1 /MDd /GS /fp:precise /permissive- /Zc:wchar_t /Zc:forScope /Zc:inline /Fo"DEBUG\\" /Fd"DEBUG\VC142.PDB" /Gd /TP /analyze- /FC D:\PROGRAMACION\C++\UNREALEXAM\PREGUNTA8\PREGUNTA8\PREGUNTA8\ENEMYATTACK.CPP
^D:\PROGRAMACION\C++\UNREALEXAM\PREGUNTA8\PREGUNTA8\PREGUNTA8\ENEMY.CPP
/c /ZI /JMC /nologo /W3 /WX- /diagnostics:column /sdl /Od /Oy- /D WIN32 /D _DEBUG /D _CONSOLE /D _UNICODE /D UNICODE /Gm- /EHsc /RTC1 /MDd /GS /fp:precise /permissive- /Zc:wchar_t /Zc:forScope /Zc:inline /Fo"DEBUG\\" /Fd"DEBUG\VC142.PDB" /Gd /TP /analyze- /FC D:\PROGRAMACION\C++\UNREALEXAM\PREGUNTA8\PREGUNTA8\PREGUNTA8\ENEMY.CPP
^D:\PROGRAMACION\C++\UNREALEXAM\PREGUNTA8\PREGUNTA8\PREGUNTA8\GAME.CPP
/c /ZI /JMC /nologo /W3 /WX- /diagnostics:column /sdl /Od /Oy- /D WIN32 /D _DEBUG /D _CONSOLE /D _UNICODE /D UNICODE /Gm- /EHsc /RTC1 /MDd /GS /fp:precise /permissive- /Zc:wchar_t /Zc:forScope /Zc:inline /Fo"DEBUG\\" /Fd"DEBUG\VC142.PDB" /Gd /TP /analyze- /FC D:\PROGRAMACION\C++\UNREALEXAM\PREGUNTA8\PREGUNTA8\PREGUNTA8\GAME.CPP
^D:\PROGRAMACION\C++\UNREALEXAM\PREGUNTA8\PREGUNTA8\PREGUNTA8\PREGUNTA8.CPP
/c /ZI /JMC /nologo /W3 /WX- /diagnostics:column /sdl /Od /Oy- /D WIN32 /D _DEBUG /D _CONSOLE /D _UNICODE /D UNICODE /Gm- /EHsc /RTC1 /MDd /GS /fp:precise /permissive- /Zc:wchar_t /Zc:forScope /Zc:inline /Fo"DEBUG\\" /Fd"DEBUG\VC142.PDB" /Gd /TP /analyze- /FC D:\PROGRAMACION\C++\UNREALEXAM\PREGUNTA8\PREGUNTA8\PREGUNTA8\PREGUNTA8.CPP
^D:\PROGRAMACION\C++\UNREALEXAM\PREGUNTA8\PREGUNTA8\PREGUNTA8\SISTEMAORQUESTADOR.CPP
/c /ZI /JMC /nologo /W3 /WX- /diagnostics:column /sdl /Od /Oy- /D WIN32 /D _DEBUG /D _CONSOLE /D _UNICODE /D UNICODE /Gm- /EHsc /RTC1 /MDd /GS /fp:precise /permissive- /Zc:wchar_t /Zc:forScope /Zc:inline /Fo"DEBUG\\" /Fd"DEBUG\VC142.PDB" /Gd /TP /analyze- /FC D:\PROGRAMACION\C++\UNREALEXAM\PREGUNTA8\PREGUNTA8\PREGUNTA8\SISTEMAORQUESTADOR.CPP
