^D:\PROGRAMACION\C++\UNREALEXAM\PREGUNTA8\PREGUNTA8\PREGUNTA8\ENEMY.CPP|D:\PROGRAMACION\C++\UNREALEXAM\PREGUNTA8\PREGUNTA8\PREGUNTA8\ENEMYATTACK.CPP|D:\PROGRAMACION\C++\UNREALEXAM\PREGUNTA8\PREGUNTA8\PREGUNTA8\PREGUNTA8.CPP
D:\PROGRAMACION\C++\UNREALEXAM\PREGUNTA8\PREGUNTA8\PREGUNTA8\DEBUG\VC142.PDB
D:\PROGRAMACION\C++\UNREALEXAM\PREGUNTA8\PREGUNTA8\PREGUNTA8\DEBUG\VC142.IDB
D:\PROGRAMACION\C++\UNREALEXAM\PREGUNTA8\PREGUNTA8\PREGUNTA8\DEBUG\PREGUNTA8.OBJ
D:\PROGRAMACION\C++\UNREALEXAM\PREGUNTA8\PREGUNTA8\PREGUNTA8\DEBUG\ENEMYATTACK.OBJ
D:\PROGRAMACION\C++\UNREALEXAM\PREGUNTA8\PREGUNTA8\PREGUNTA8\DEBUG\ENEMY.OBJ
^D:\PROGRAMACION\C++\UNREALEXAM\PREGUNTA8\PREGUNTA8\PREGUNTA8\ENEMY.CPP|D:\PROGRAMACION\C++\UNREALEXAM\PREGUNTA8\PREGUNTA8\PREGUNTA8\GAME.CPP
D:\PROGRAMACION\C++\UNREALEXAM\PREGUNTA8\PREGUNTA8\PREGUNTA8\DEBUG\VC142.PDB
D:\PROGRAMACION\C++\UNREALEXAM\PREGUNTA8\PREGUNTA8\PREGUNTA8\DEBUG\VC142.IDB
D:\PROGRAMACION\C++\UNREALEXAM\PREGUNTA8\PREGUNTA8\PREGUNTA8\DEBUG\GAME.OBJ
D:\PROGRAMACION\C++\UNREALEXAM\PREGUNTA8\PREGUNTA8\PREGUNTA8\DEBUG\ENEMY.OBJ
^D:\PROGRAMACION\C++\UNREALEXAM\PREGUNTA8\PREGUNTA8\PREGUNTA8\ENEMY.CPP|D:\PROGRAMACION\C++\UNREALEXAM\PREGUNTA8\PREGUNTA8\PREGUNTA8\ENEMYATTACK.CPP|D:\PROGRAMACION\C++\UNREALEXAM\PREGUNTA8\PREGUNTA8\PREGUNTA8\GAME.CPP|D:\PROGRAMACION\C++\UNREALEXAM\PREGUNTA8\PREGUNTA8\PREGUNTA8\PREGUNTA8.CPP|D:\PROGRAMACION\C++\UNREALEXAM\PREGUNTA8\PREGUNTA8\PREGUNTA8\SISTEMAORQUESTADOR.CPP
D:\PROGRAMACION\C++\UNREALEXAM\PREGUNTA8\PREGUNTA8\PREGUNTA8\DEBUG\VC142.PDB
D:\PROGRAMACION\C++\UNREALEXAM\PREGUNTA8\PREGUNTA8\PREGUNTA8\DEBUG\VC142.IDB
D:\PROGRAMACION\C++\UNREALEXAM\PREGUNTA8\PREGUNTA8\PREGUNTA8\DEBUG\ENEMYATTACK.OBJ
^D:\PROGRAMACION\C++\UNREALEXAM\PREGUNTA8\PREGUNTA8\PREGUNTA8\ENEMYATTACK.CPP
D:\PROGRAMACION\C++\UNREALEXAM\PREGUNTA8\PREGUNTA8\PREGUNTA8\DEBUG\ENEMYATTACK.OBJ
^D:\PROGRAMACION\C++\UNREALEXAM\PREGUNTA8\PREGUNTA8\PREGUNTA8\ENEMY.CPP|D:\PROGRAMACION\C++\UNREALEXAM\PREGUNTA8\PREGUNTA8\PREGUNTA8\SISTEMAORQUESTADOR.CPP
D:\PROGRAMACION\C++\UNREALEXAM\PREGUNTA8\PREGUNTA8\PREGUNTA8\DEBUG\VC142.PDB
D:\PROGRAMACION\C++\UNREALEXAM\PREGUNTA8\PREGUNTA8\PREGUNTA8\DEBUG\VC142.IDB
D:\PROGRAMACION\C++\UNREALEXAM\PREGUNTA8\PREGUNTA8\PREGUNTA8\DEBUG\SISTEMAORQUESTADOR.OBJ
D:\PROGRAMACION\C++\UNREALEXAM\PREGUNTA8\PREGUNTA8\PREGUNTA8\DEBUG\ENEMY.OBJ
^D:\PROGRAMACION\C++\UNREALEXAM\PREGUNTA8\PREGUNTA8\PREGUNTA8\ENEMY.CPP|D:\PROGRAMACION\C++\UNREALEXAM\PREGUNTA8\PREGUNTA8\PREGUNTA8\GAME.CPP|D:\PROGRAMACION\C++\UNREALEXAM\PREGUNTA8\PREGUNTA8\PREGUNTA8\PREGUNTA8.CPP|D:\PROGRAMACION\C++\UNREALEXAM\PREGUNTA8\PREGUNTA8\PREGUNTA8\SISTEMAORQUESTADOR.CPP
D:\PROGRAMACION\C++\UNREALEXAM\PREGUNTA8\PREGUNTA8\PREGUNTA8\DEBUG\VC142.PDB
D:\PROGRAMACION\C++\UNREALEXAM\PREGUNTA8\PREGUNTA8\PREGUNTA8\DEBUG\VC142.IDB
D:\PROGRAMACION\C++\UNREALEXAM\PREGUNTA8\PREGUNTA8\PREGUNTA8\DEBUG\SISTEMAORQUESTADOR.OBJ
D:\PROGRAMACION\C++\UNREALEXAM\PREGUNTA8\PREGUNTA8\PREGUNTA8\DEBUG\PREGUNTA8.OBJ
D:\PROGRAMACION\C++\UNREALEXAM\PREGUNTA8\PREGUNTA8\PREGUNTA8\DEBUG\GAME.OBJ
D:\PROGRAMACION\C++\UNREALEXAM\PREGUNTA8\PREGUNTA8\PREGUNTA8\DEBUG\ENEMY.OBJ
^D:\PROGRAMACION\C++\UNREALEXAM\PREGUNTA8\PREGUNTA8\PREGUNTA8\ENEMY.CPP
D:\PROGRAMACION\C++\UNREALEXAM\PREGUNTA8\PREGUNTA8\PREGUNTA8\DEBUG\VC142.PDB
^D:\PROGRAMACION\C++\UNREALEXAM\PREGUNTA8\PREGUNTA8\PREGUNTA8\GAME.CPP
D:\PROGRAMACION\C++\UNREALEXAM\PREGUNTA8\PREGUNTA8\PREGUNTA8\DEBUG\VC142.PDB
^D:\PROGRAMACION\C++\UNREALEXAM\PREGUNTA8\PREGUNTA8\PREGUNTA8\PREGUNTA8.CPP
D:\PROGRAMACION\C++\UNREALEXAM\PREGUNTA8\PREGUNTA8\PREGUNTA8\DEBUG\VC142.PDB
^D:\PROGRAMACION\C++\UNREALEXAM\PREGUNTA8\PREGUNTA8\PREGUNTA8\SISTEMAORQUESTADOR.CPP
D:\PROGRAMACION\C++\UNREALEXAM\PREGUNTA8\PREGUNTA8\PREGUNTA8\DEBUG\VC142.PDB
