^D:\Programacion\C++\UnrealExam\Pregunta8\Pregunta8\Pregunta8\Pregunta8.vcxproj
D:\Programacion\C++\UnrealExam\Pregunta8\Pregunta8\Release\Pregunta8.ipdb
D:\Programacion\C++\UnrealExam\Pregunta8\Pregunta8\Release\Pregunta8.iobj
^D:\Programacion\C++\UnrealExam\Pregunta8\Pregunta8\Pregunta8\Pregunta8.vcxproj
D:\Programacion\C++\UnrealExam\Pregunta8\Pregunta8\Release\Pregunta8.ipdb
D:\Programacion\C++\UnrealExam\Pregunta8\Pregunta8\Release\Pregunta8.iobj
